id;city_name;weather_description;current_temperature;min_temperature;max_temperature;sunset;sunrise
1;withdrawal cyan Delaware;maroon Intelligent Granite;39504;83538;33211;86708;2020-02-03
2;transmit turquoise Licensed Soft Salad;local area network Customer-focused extensible;41598;36409;63488;29351;2020-02-03
3;reboot Wooden;niches;1461;9914;72403;62084;2020-02-03
4;invoice deposit Curve;Buckinghamshire;9139;16559;93552;16096;2020-02-02
5;SQL Savings Account Wooden;Corporate;53092;17690;87093;5803;2020-02-03
6;background American Samoa;withdrawal Summit;69638;72281;88516;32159;2020-02-02
7;eyeballs;Agent open-source neutral;58443;49724;34804;20170;2020-02-02
8;Home Loan Account;quantifying bypass;16939;38160;64770;38523;2020-02-02
9;withdrawal Orchestrator Wallis and Futuna;copy web services SQL;94689;91300;77250;13158;2020-02-02
10;multi-state Persevering;maroon Ergonomic;84685;62619;15703;5192;2020-02-02
