{
    "fluentMethods": true,
    "clientRootFolder": "",
    "relationships": [
        {
            "relationshipName": "user",
            "otherEntityName": "user",
            "relationshipType": "many-to-one",
            "otherEntityField": "login",
            "ownerSide": true,
            "otherEntityRelationshipName": "weatherHistory"
        }
    ],
    "fields": [
        {
            "fieldName": "cityName",
            "fieldType": "String",
            "fieldValidateRules": []
        },
        {
            "fieldName": "weatherDescription",
            "fieldType": "String"
        },
        {
            "fieldName": "currentTemperature",
            "fieldType": "Double"
        },
        {
            "fieldName": "minTemperature",
            "fieldType": "Double"
        },
        {
            "fieldName": "maxTemperature",
            "fieldType": "Double"
        },
        {
            "fieldName": "sunset",
            "fieldType": "Double"
        },
        {
            "fieldName": "sunrise",
            "fieldType": "LocalDate"
        }
    ],
    "changelogDate": "20200203112501",
    "dto": "no",
    "searchEngine": false,
    "service": "serviceClass",
    "entityTableName": "weatherHistory",
    "databaseType": "sql",
    "readOnly": false,
    "jpaMetamodelFiltering": false,
    "pagination": "no"
}
